<svg width="50" height="50" viewBox="0 0 50 50" fill="none" xmlns="http://www.w3.org/2000/svg">
<g clip-path="url(#clip0)">
<g filter="url(#filter0_d)">
<circle cx="25" cy="25" r="25" fill="#3366FF"/>
</g>
<path fill-rule="evenodd" clip-rule="evenodd" d="M16.3213 24.3954C16.3213 19.2678 20.4781 15.1111 25.6058 15.1111C30.7335 15.1111 34.8904 19.2678 34.8904 24.3954C34.8904 29.523 30.7335 33.6797 25.6058 33.6797C24.0245 33.6797 22.5383 33.2852 21.2373 32.5901C21.0308 32.4798 20.7922 32.4454 20.5629 32.493L15.6948 33.5028L17.3027 29.2766C17.4012 29.0176 17.3878 28.7292 17.2657 28.4804C16.6612 27.2489 16.3213 25.8633 16.3213 24.3954ZM25.6058 13.1111C19.3736 13.1111 14.3213 18.1632 14.3213 24.3954C14.3213 26.0184 14.6645 27.5636 15.2831 28.9604L13.1767 34.497C13.0468 34.8383 13.1134 35.2234 13.3503 35.5013C13.5872 35.7792 13.9569 35.9059 14.3145 35.8317L20.6237 34.5229C22.1272 35.2638 23.8192 35.6797 25.6058 35.6797C31.8381 35.6797 36.8904 30.6276 36.8904 24.3954C36.8904 18.1632 31.8381 13.1111 25.6058 13.1111ZM20.5921 25.5188C21.3081 25.5188 21.8885 24.9381 21.8885 24.2219C21.8885 23.5057 21.3081 22.9251 20.5921 22.9251C19.8762 22.9251 19.2958 23.5057 19.2958 24.2219C19.2958 24.9381 19.8762 25.5188 20.5921 25.5188ZM27.074 24.2219C27.074 24.9382 26.4936 25.5188 25.7776 25.5188C25.0616 25.5188 24.4812 24.9382 24.4812 24.2219C24.4812 23.5057 25.0616 22.9251 25.7776 22.9251C26.4936 22.9251 27.074 23.5057 27.074 24.2219ZM30.9631 25.5188C31.6791 25.5188 32.2595 24.9382 32.2595 24.2219C32.2595 23.5057 31.6791 22.9251 30.9631 22.9251C30.2471 22.9251 29.6667 23.5057 29.6667 24.2219C29.6667 24.9382 30.2471 25.5188 30.9631 25.5188Z" fill="white"/>
</g>
<defs>
<filter id="filter0_d" x="-50" y="-40" width="150" height="150" filterUnits="userSpaceOnUse" color-interpolation-filters="sRGB">
<feFlood flood-opacity="0" result="BackgroundImageFix"/>
<feColorMatrix in="SourceAlpha" type="matrix" values="0 0 0 0 0 0 0 0 0 0 0 0 0 0 0 0 0 0 127 0"/>
<feOffset dy="10"/>
<feGaussianBlur stdDeviation="25"/>
<feColorMatrix type="matrix" values="0 0 0 0 0.2 0 0 0 0 0.4 0 0 0 0 1 0 0 0 0.4 0"/>
<feBlend mode="normal" in2="BackgroundImageFix" result="effect1_dropShadow"/>
<feBlend mode="normal" in="SourceGraphic" in2="effect1_dropShadow" result="shape"/>
</filter>
<clipPath id="clip0">
<rect width="50" height="50" fill="white"/>
</clipPath>
</defs>
</svg>
