<svg width="50" height="50" viewBox="0 0 50 50" fill="none" xmlns="http://www.w3.org/2000/svg">
<rect width="50" height="50" rx="25" fill="#7B519D"/>
<path fill-rule="evenodd" clip-rule="evenodd" d="M33.4252 29.5428C32.8058 29.0441 32.1439 28.5966 31.4923 28.1393C30.1928 27.2266 29.0042 27.1557 28.0345 28.6241C27.49 29.4485 26.7277 29.4846 25.9306 29.1229C23.7333 28.1266 22.0366 26.5914 21.0427 24.3581C20.603 23.37 20.6088 22.4841 21.6375 21.7852C22.1821 21.4156 22.7308 20.9783 22.6869 20.1707C22.6296 19.1177 20.0729 15.5987 19.0633 15.2273C18.6455 15.0736 18.2295 15.0836 17.8044 15.2264C15.437 16.0226 14.4564 17.9696 15.3955 20.275C18.1971 27.1529 23.1275 31.9411 29.9145 34.8636C30.3014 35.03 30.7313 35.0965 30.9489 35.1563C32.4941 35.1718 34.3042 33.6831 34.827 32.2056C35.3303 30.7843 34.2666 30.2201 33.4252 29.5428ZM25.8154 15.9324C30.7771 16.6954 33.0653 19.0547 33.6972 24.0522C33.7558 24.5138 33.5838 25.2084 34.2424 25.2212C34.9307 25.2343 34.7649 24.55 34.7706 24.0879C34.8288 19.3813 30.7249 15.018 25.9588 14.8571C25.5992 14.9089 24.8552 14.6092 24.8088 15.4151C24.7779 15.9585 25.4043 15.8692 25.8154 15.9324Z" fill="white"/>
<path fill-rule="evenodd" clip-rule="evenodd" d="M26.7858 17.3025C26.3086 17.245 25.6786 17.0202 25.567 17.6824C25.4506 18.3774 26.1528 18.3068 26.604 18.4078C29.6685 19.0927 30.7355 20.2081 31.2401 23.2479C31.3137 23.691 31.1673 24.3808 31.9205 24.2665C32.4786 24.1815 32.277 23.5902 32.3237 23.2449C32.3484 20.3264 29.8477 17.6702 26.7858 17.3025Z" fill="white"/>
<path fill-rule="evenodd" clip-rule="evenodd" d="M27.0671 19.6892C26.7485 19.6971 26.4359 19.7316 26.3188 20.072C26.1429 20.5809 26.5128 20.7022 26.8894 20.7626C28.1465 20.9645 28.8081 21.7057 28.9337 22.9593C28.9676 23.2995 29.1835 23.5752 29.5122 23.5364C29.9676 23.4821 30.0088 23.0767 29.9948 22.6917C30.0173 21.2834 28.4255 19.6555 27.0671 19.6892Z" fill="white"/>
</svg>
